\relax 
\catcode`:\active
\catcode`;\active
\catcode`!\active
\catcode`?\active
\select@language{french}
\@writefile{toc}{\select@language{french}}
\@writefile{lof}{\select@language{french}}
\@writefile{lot}{\select@language{french}}
\@writefile{loa}{\addvspace {10\p@ }}
\@writefile{loa}{\addvspace {10\p@ }}
\@writefile{toc}{\contentsline {chapter}{Introduction}{2}}
\@writefile{loa}{\addvspace {10\p@ }}
\@writefile{toc}{\contentsline {chapter}{\numberline {1}D\IeC {\'e}finition des probl\IeC {\`e}mes et mod\IeC {\'e}lisation des donn\IeC {\'e}es}{3}}
\@writefile{lof}{\addvspace {10\p@ }}
\@writefile{lot}{\addvspace {10\p@ }}
\@writefile{toc}{\contentsline {section}{\numberline {1.1}D\IeC {\'e}finition des probl\IeC {\`e}mes}{3}}
\newlabel{subsec:regles}{{1.1.1}{3}}
\@writefile{toc}{\contentsline {subsection}{\numberline {1.1.1}R\IeC {\`e}gles du jeu}{3}}
\@writefile{lof}{\contentsline {figure}{\numberline {1.1}{\ignorespaces Grille \IeC {\`a} r\IeC {\'e}soudre}}{3}}
\@writefile{lof}{\contentsline {figure}{\numberline {1.2}{\ignorespaces Grille r\IeC {\'e}solue}}{3}}
\@writefile{toc}{\contentsline {subsection}{\numberline {1.1.2}R\IeC {\'e}solution de la grille}{4}}
\@writefile{toc}{\contentsline {section}{\numberline {1.2}Mod\IeC {\'e}lisation des donn\IeC {\'e}es}{4}}
\@writefile{toc}{\contentsline {subsection}{\numberline {1.2.1}Structure des cases}{4}}
\@writefile{toc}{\contentsline {subsection}{\numberline {1.2.2}Structure de la grille}{5}}
\@writefile{toc}{\contentsline {subsection}{\numberline {1.2.3}Manipulation du fichier texte}{5}}
\@writefile{toc}{\contentsline {section}{\numberline {1.3}Interface graphique}{6}}
\@writefile{loa}{\addvspace {10\p@ }}
\@writefile{toc}{\contentsline {chapter}{\numberline {2}R\IeC {\'e}solution de la grille}{7}}
\@writefile{lof}{\addvspace {10\p@ }}
\@writefile{lot}{\addvspace {10\p@ }}
\@writefile{toc}{\contentsline {section}{\numberline {2.1}Contr\IeC {\^o}le de la validit\IeC {\'e}}{7}}
\@writefile{loa}{\contentsline {algocf}{\numberline {1}{\ignorespaces Fonction \texttt  {chemin-correct}}}{7}}
\newlabel{chemin-correct}{{1}{7}}
\@writefile{loa}{\contentsline {algocf}{\numberline {2}{\ignorespaces Fonction \texttt  {est-resolue}}}{8}}
\newlabel{est-resolue}{{2}{8}}
\@writefile{toc}{\contentsline {section}{\numberline {2.2}Strat\IeC {\'e}gie de r\IeC {\'e}solution simple}{8}}
\@writefile{toc}{\contentsline {subsection}{\numberline {2.2.1}Description}{8}}
\@writefile{lof}{\contentsline {figure}{\numberline {2.1}{\ignorespaces Exemple du parcours en profondeur}}{8}}
\@writefile{lof}{\contentsline {figure}{\numberline {2.2}{\ignorespaces Exemple du parcours en profondeur}}{9}}
\newlabel{fig:parcours-pro}{{2.2}{9}}
\@writefile{lof}{\contentsline {figure}{\numberline {2.3}{\ignorespaces Exemple du parcours en profondeur}}{9}}
\newlabel{fig:sac}{{2.3}{9}}
\@writefile{lof}{\contentsline {figure}{\numberline {2.4}{\ignorespaces Exemple du parcours en profondeur}}{9}}
\newlabel{fig:pile}{{2.4}{9}}
\@writefile{toc}{\contentsline {subsection}{\numberline {2.2.2}Fonctions requises}{10}}
\newlabel{rebrousser-chemin}{{3}{10}}
\@writefile{loa}{\contentsline {algocf}{\numberline {3}{\ignorespaces Proc\IeC {\'e}dure \texttt  {rebrousser-chemin}}}{10}}
\newlabel{construire-chemin}{{4}{11}}
\@writefile{loa}{\contentsline {algocf}{\numberline {4}{\ignorespaces Proc\IeC {\'e}dure \texttt  {construire-chemin}}}{11}}
\@writefile{toc}{\contentsline {subsection}{\numberline {2.2.3}Algorithme de r\IeC {\'e}solution}{11}}
\@writefile{loa}{\contentsline {algocf}{\numberline {5}{\ignorespaces Fonction \texttt  {resoudre}}}{11}}
\newlabel{subsec:perf}{{2.2.4}{12}}
\@writefile{toc}{\contentsline {subsection}{\numberline {2.2.4}Performances}{12}}
\@writefile{lof}{\contentsline {figure}{\numberline {2.5}{\ignorespaces Mesures des performances de l'algorithme de parcours en profondeur}}{12}}
\newlabel{subsec:strategie}{{2.3}{12}}
\@writefile{toc}{\contentsline {section}{\numberline {2.3}Strat\IeC {\'e}gies de r\IeC {\'e}solution avanc\IeC {\'e}es}{12}}
\@writefile{toc}{\contentsline {subsection}{\numberline {2.3.1}Utilisation de certaines contraintes}{12}}
\@writefile{lof}{\contentsline {figure}{\numberline {2.6}{\ignorespaces Exemple 1}}{12}}
\newlabel{fig:cas11}{{2.6}{12}}
\@writefile{lof}{\contentsline {figure}{\numberline {2.7}{\ignorespaces Exemple 2}}{12}}
\newlabel{fig:cas12}{{2.7}{12}}
\newlabel{subsec:frontiere}{{2.3.2}{13}}
\@writefile{toc}{\contentsline {subsection}{\numberline {2.3.2}Utilisation des fronti\IeC {\`e}res}{13}}
\@writefile{lof}{\contentsline {figure}{\numberline {2.8}{\ignorespaces R\IeC {\'e}solution par les bords}}{13}}
\newlabel{fig:cas2}{{2.8}{13}}
\@writefile{lof}{\contentsline {figure}{\numberline {2.9}{\ignorespaces R\IeC {\'e}solution par les bords}}{14}}
\newlabel{fig:cas3}{{2.9}{14}}
\@writefile{toc}{\contentsline {subsection}{\numberline {2.3.3}Performances}{14}}
\@writefile{lof}{\contentsline {figure}{\numberline {2.10}{\ignorespaces Mesures des performances de l'algorithme}}{14}}
\@writefile{loa}{\addvspace {10\p@ }}
\@writefile{toc}{\contentsline {chapter}{Conclusion}{15}}
